…
### 4.1) Create a new data frame


``` r
coal_country <- coal_clean %>%
  mutate(date = yq(paste(year, quarter, sep = "Q"))) %>%
  group_by(coal_destination_country, year, quarter, date) %>%
  summarize(total_exports = sum(total, na.rm = TRUE), .groups = "drop")

print(coal_country)
```

```
## # A tibble: 5,750 × 5
##    coal_destination_country  year quarter date       total_exports
##    <chr>                    <dbl>   <dbl> <date>             <dbl>
##  1 Albania                   2016       4 2016-10-01            74
##  2 Albania                   2023       2 2023-04-01         24152
##  3 Algeria                   2002       1 2002-01-01        129305
##  4 Algeria                   2002       3 2002-07-01         62931
##  5 Algeria                   2002       4 2002-10-01        129563
##  6 Algeria                   2003       1 2003-01-01        128525
##  7 Algeria                   2003       2 2003-04-01         70539
##  8 Algeria                   2003       3 2003-07-01        141813
##  9 Algeria                   2003       4 2003-10-01         66499
## 10 Algeria                   2004       1 2004-01-01        141438
## # ℹ 5,740 more rows
```
…
Fill in the implicit missing values, so that each country has a representative row for every year-quarter time period. In other words, you should modify the data frame so that every destination country has row entries for all possible year-quarter combinations (from 2002Q1 through the most recent quarter). I.e., a balanced panel. Order your updated data frame by country, year and, quarter.

**Assuming these values are true 0's, another alternative would be filling in linear values between observations.**


``` r
coal_country_complete <- coal_country %>%
  complete(coal_destination_country, nesting(year, quarter, date), fill = list(total_exports = 0)) %>%
  arrange(coal_destination_country, year, quarter)

print(coal_country_complete)
```

```
## # A tibble: 14,592 × 5
##    coal_destination_country  year quarter date       total_exports
##    <chr>                    <dbl>   <dbl> <date>             <dbl>
##  1 Albania                   2002       1 2002-01-01             0
##  2 Albania                   2002       2 2002-04-01             0
##  3 Albania                   2002       3 2002-07-01             0
##  4 Albania                   2002       4 2002-10-01             0
##  5 Albania                   2003       1 2003-01-01             0
##  6 Albania                   2003       2 2003-04-01             0
##  7 Albania                   2003       3 2003-07-01             0
##  8 Albania                   2003       4 2003-10-01             0
##  9 Albania                   2004       1 2004-01-01             0
## 10 Albania                   2004       2 2004-04-01             0
## # ℹ 14,582 more rows
```
…
print(missing_inspection)
```

```
## # A tibble: 96 × 3
##    date       total_countries missing_values
##    <date>               <int>          <int>
##  1 2003-10-01             152            110
##  2 2002-01-01             152            106
##  3 2002-10-01             152            106
##  4 2002-07-01             152            105
##  5 2003-01-01             152            105
##  6 2003-04-01             152            103
##  7 2003-07-01             152            103
##  8 2004-04-01             152            103
##  9 2024-10-01             152            103
## 10 2025-10-01             152            103
## # ℹ 86 more rows
```
…
